2020/03/27 17:53:26 [notice] 44#44: signal process started
2020/03/27 17:53:26 [notice] 51#51: signal process started
2020/03/27 17:53:29 [notice] 59#59: signal process started
2020/03/27 17:54:47 [notice] 43#43: signal process started
2020/03/27 17:54:50 [notice] 52#52: signal process started
2020/03/27 17:55:55 [notice] 58#58: signal process started
2020/03/27 17:58:54 [notice] 65#65: signal process started
